{
  "count": 38,
  "next": "https://hub.docker.com/v2/repositories/rycus86/?page=2&page_size=20",
  "previous": null,
  "results": [
    {
      "user": "rycus86",
      "name": "prometheus",
      "namespace": "rycus86",
      "repository_type": "image",
      "status": 1,
      "description": "Prometheus monitoring - prometheus.io",
      "is_private": false,
      "is_automated": true,
      "can_edit": false,
      "star_count": 2,
      "pull_count": 339913,
      "last_updated": "2018-06-19T20:30:22.284727Z"
    },
    {
      "user": "rycus86",
      "name": "ddclient",
      "namespace": "rycus86",
      "repository_type": "image",
      "status": 1,
      "description": "DynDNS updater (ddclient) based on Debian.",
      "is_private": false,
      "is_automated": true,
      "can_edit": false,
      "star_count": 0,
      "pull_count": 112784,
      "last_updated": "2017-11-06T21:49:18.286212Z"
    },
    {
      "user": "rycus86",
      "name": "prometheus-node-exporter",
      "namespace": "rycus86",
      "repository_type": "image",
      "status": 1,
      "description": "Prometheus exporter for hardware and OS metrics on ARM hosts.",
      "is_private": false,
      "is_automated": true,
      "can_edit": false,
      "star_count": 1,
      "pull_count": 89128,
      "last_updated": "2018-05-16T20:52:18.187870Z"
    },
    {
      "user": "rycus86",
      "name": "docker-pygen",
      "namespace": "rycus86",
      "repository_type": "image",
      "status": 1,
      "description": "Automatic configuration generation based on Docker events and state.",
      "is_private": false,
      "is_automated": true,
      "can_edit": false,
      "star_count": 0,
      "pull_count": 17448,
      "last_updated": "2018-06-20T09:00:42.486590Z"
    },
    {
      "user": "rycus86",
      "name": "github-proxy",
      "namespace": "rycus86",
      "repository_type": "image",
      "status": 1,
      "description": "Python Flask application to proxy calls to the GitHub API.",
      "is_private": false,
      "is_automated": true,
      "can_edit": false,
      "star_count": 0,
      "pull_count": 8817,
      "last_updated": "2018-02-07T18:38:35.224672Z"
    },
    {
      "user": "rycus86",
      "name": "demo-site",
      "namespace": "rycus86",
      "repository_type": "image",
      "status": 1,
      "description": "Demo website built with Python Flask.",
      "is_private": false,
      "is_automated": true,
      "can_edit": false,
      "star_count": 0,
      "pull_count": 8809,
      "last_updated": "2018-03-08T20:10:59.685111Z"
    },
    {
      "user": "rycus86",
      "name": "googleplay-proxy",
      "namespace": "rycus86",
      "repository_type": "image",
      "status": 1,
      "description": "Python Flask application to proxy calls to Google Play Store.",
      "is_private": false,
      "is_automated": true,
      "can_edit": false,
      "star_count": 0,
      "pull_count": 8785,
      "last_updated": "2018-02-16T06:04:12.296420Z"
    },
    {
      "user": "rycus86",
      "name": "dockerhub-proxy",
      "namespace": "rycus86",
      "repository_type": "image",
      "status": 1,
      "description": "Python Flask application to proxy calls to the Docker Hub API.",
      "is_private": false,
      "is_automated": true,
      "can_edit": false,
      "star_count": 1,
      "pull_count": 8744,
      "last_updated": "2018-02-07T18:25:20.446960Z"
    },
    {
      "user": "rycus86",
      "name": "arm-nginx",
      "namespace": "rycus86",
      "repository_type": "image",
      "status": 1,
      "description": "Nginx image for ARM hosts.",
      "is_private": false,
      "is_automated": false,
      "can_edit": false,
      "star_count": 0,
      "pull_count": 8266,
      "last_updated": "2017-07-17T22:19:34.872597Z"
    },
    {
      "user": "rycus86",
      "name": "grafana",
      "namespace": "rycus86",
      "repository_type": "image",
      "status": 1,
      "description": "Grafana time series analytics software - grafana.com",
      "is_private": false,
      "is_automated": true,
      "can_edit": false,
      "star_count": 0,
      "pull_count": 4281,
      "last_updated": "2018-06-27T20:45:21.491652Z"
    },
    {
      "user": "rycus86",
      "name": "arm-docker-gen",
      "namespace": "rycus86",
      "repository_type": "image",
      "status": 1,
      "description": "ARM docker-gen image based on jwilder/docker-gen.",
      "is_private": false,
      "is_automated": false,
      "can_edit": false,
      "star_count": 1,
      "pull_count": 2456,
      "last_updated": "2017-07-17T22:19:36.536094Z"
    },
    {
      "user": "rycus86",
      "name": "podlike",
      "namespace": "rycus86",
      "repository_type": "image",
      "status": 1,
      "description": "Co-located containers as Docker Swarm services (like Kubernetes pods)",
      "is_private": false,
      "is_automated": false,
      "can_edit": false,
      "star_count": 0,
      "pull_count": 2379,
      "last_updated": "2018-06-26T07:19:07.633876Z"
    },
    {
      "user": "rycus86",
      "name": "webhook-proxy",
      "namespace": "rycus86",
      "repository_type": "image",
      "status": 1,
      "description": "Simple web server for executing actions on receiving JSON webhooks.",
      "is_private": false,
      "is_automated": true,
      "can_edit": false,
      "star_count": 0,
      "pull_count": 1521,
      "last_updated": "2018-06-22T05:13:43.670147Z"
    },
    {
      "user": "rycus86",
      "name": "pycharm",
      "namespace": "rycus86",
      "repository_type": "image",
      "status": 1,
      "description": "PyCharm IDE CE",
      "is_private": false,
      "is_automated": true,
      "can_edit": false,
      "star_count": 1,
      "pull_count": 1106,
      "last_updated": "2018-06-06T20:35:29.534907Z"
    },
    {
      "user": "rycus86",
      "name": "armhf-alpine-qemu",
      "namespace": "rycus86",
      "repository_type": "image",
      "status": 1,
      "description": "An armhf alpine image with qemu binary to run builds on non-armhf hosts (like Travis build agents).",
      "is_private": false,
      "is_automated": true,
      "can_edit": false,
      "star_count": 1,
      "pull_count": 1027,
      "last_updated": "2018-06-19T22:36:56.732934Z"
    },
    {
      "user": "rycus86",
      "name": "arm64v8-alpine-qemu",
      "namespace": "rycus86",
      "repository_type": "image",
      "status": 1,
      "description": "An arm64 (aarch64) alpine image with qemu binary to run builds on non-armhf hosts (like Travis).",
      "is_private": false,
      "is_automated": true,
      "can_edit": false,
      "star_count": 1,
      "pull_count": 996,
      "last_updated": "2018-06-19T22:39:17.863491Z"
    },
    {
      "user": "rycus86",
      "name": "docker-registry",
      "namespace": "rycus86",
      "repository_type": "image",
      "status": 1,
      "description": "Docker Registry for ARM hosts",
      "is_private": false,
      "is_automated": true,
      "can_edit": false,
      "star_count": 0,
      "pull_count": 350,
      "last_updated": "2017-11-07T21:29:45.349283Z"
    },
    {
      "user": "rycus86",
      "name": "domain-automation",
      "namespace": "rycus86",
      "repository_type": "image",
      "status": 1,
      "description": "Domain automation",
      "is_private": false,
      "is_automated": false,
      "can_edit": false,
      "star_count": 0,
      "pull_count": 306,
      "last_updated": "2018-03-20T18:39:51.783418Z"
    },
    {
      "user": "rycus86",
      "name": "release-watcher",
      "namespace": "rycus86",
      "repository_type": "image",
      "status": 1,
      "description": "Watcher for new releases of projects",
      "is_private": false,
      "is_automated": false,
      "can_edit": false,
      "star_count": 0,
      "pull_count": 263,
      "last_updated": "2018-06-19T22:38:06.539115Z"
    },
    {
      "user": "rycus86",
      "name": "intellij-idea",
      "namespace": "rycus86",
      "repository_type": "image",
      "status": 1,
      "description": "IntelliJ IDEA CE",
      "is_private": false,
      "is_automated": true,
      "can_edit": false,
      "star_count": 0,
      "pull_count": 253,
      "last_updated": "2018-06-27T20:43:05.026281Z"
    }
  ]
}